523118 663073 509
964881 99496 525
51132 112688 354
456075 9674 449
884015 31066 525
311377 406055 441
24494 474688 449
894356 910108 476
691711 654648 442
530697 61388 470
743831 359061 509
26078 423398 449
201593 46653 383
844641 385397 525
212785 685341 509
344940 955474 525
458656 936668 525
384076 872235 525
381556 593989 470
777295 566329 509
474723 600003 470
937482 825455 525
86271 105014 341
311944 960048 525
403804 146317 443
448473 689231 509
815185 70060 509
842575 876784 432
204864 807924 509
587348 358551 470
459034 381201 449
649318 699918 442
220481 696221 509
285247 8922 443
541410 491980 470
236404 409525 441
320633 56570 443
752806 577605 509
475596 636353 509
758280 865021 525
454251 410718 418
314554 11576 443
95879 670031 509
806067 306634 509
385050 124629 443
180708 471814 449
34416 658532 509
108086 988978 525
529918 167782 470
645089 921719 525
119749 642926 509
224870 289657 443
318771 717716 509
162534 561394 470
117237 489660 449
226921 897547 525
31175 366097 443
38972 555446 470
846013 815685 525
198025 827837 509
555759 65364 470
764641 405390 509
370157 751872 509
870448 204110 525
847970 537134 525
335185 640372 509
320794 994613 525
835564 958431 525
715347 309149 509
9603 196268 383
123998 807685 509
399371 935746 525
749432 597204 509
188655 549109 470
494478 375267 449
231289 806195 509
395480 836169 509
771073 518758 509
82784 65400 351
800448 61526 509
234554 142583 443
250581 996482 525
220343 472597 449
847080 160356 525
81041 866118 525
270178 51776 443
861113 866230 388
844320 833840 525
766649 546387 509
570626 534153 452
1187 565108 470
650706 524092 509
590035 805332 509
389025 562858 470
453762 500998 444
808890 502680 509
380261 586924 470
811514 204016 509
869483 856237 388
691243 660161 442
312454 525235 470
663191 125856 509
868834 995136 507
287101 24047 443
341448 238247 407
662848 468351 509
78987 347496 443
179143 695337 509
383017 574057 470
536178 846829 525
577737 364264 470
947392 812436 525
460978 640599 509
720513 509004 509
675978 4337 509
878214 253354 525
835946 24492 509
688357 606740 509
909417 532262 525
385707 587307 470
787482 106056 509
543615 431555 470
971917 406817 525
27620 977211 525
296631 466241 449
93212 564683 470
176908 961986 525
200466 499899 449
73046 468272 449
636689 386347 509
583802 428274 470
694118 195062 509
409174 5254 443
134617 706693 509
469449 789770 509
251745 770127 509
53859 485452 449
110656 181748 383
48608 229631 386
494589 969873 525
708666 289111 509
227904 224676 368
278370 334832 389
746860 302764 509
907117 133665 525
412572 202047 449
685940 354885 509
383731 575213 470
147756 486138 449
557338 155244 470
404563 620151 470
30783 588299 470
746662 758390 424
305876 76729 443
516809 927936 525
732577 512300 509
81491 953112 525
313953 732148 509
712615 162976 509
417633 477685 444
62951 508875 449
898960 861353 445
907492 494654 525
935008 404053 525
34697 86551 351
295474 947036 525
143736 399999 443
439197 192264 449
546783 26847 470
562106 762082 509
149074 855172 525
72809 158836 383
6697 892233 525
151917 804490 509
75964 767179 509
228591 51869 386
784909 972750 525
918639 935614 476
376230 733592 509
852918 228487 525
96114 317632 443
660245 918334 525
574543 353084 470
820074 450138 509
862655 662691 525
653848 4109 509
76279 343493 443
715139 872904 525
897723 609465 525
870608 550091 525
261610 125301 443
692395 152739 509
545333 269633 470
92383 773 351
189998 252419 443
509501 84789 449
72552 922835 525
480984 218667 449
664457 633359 429
313022 985190 525
90373 760294 509
797288 259634 509
701937 54854 509
116313 850892 525
363710 272789 441
962349 255358 525
945750 345790 525
922844 454408 525
241002 536401 470
587036 798248 509
11970 283049 443
952858 618531 525
578724 978116 525
910332 375230 525
772045 952494 525
891520 359892 525
358977 636869 509
260934 376366 441
892612 78690 525
375992 769670 509
5121 956856 525
539732 108859 470
853590 229228 525
262697 682606 509
834463 814629 450
94022 920767 525
989183 222169 525
947845 13538 525
89839 156010 375
832529 529938 509
40790 302659 443
40593 276734 443
393267 746823 509
296577 794760 509
782381 79641 509
377037 75620 443
791909 309782 509
149781 921602 525
619546 22624 470
73644 203814 383
17807 707012 509
151843 774632 509
119068 644350 509
782584 100233 509
460571 969248 525
285294 818589 509
981231 365596 525
265316 198825 443
51440 183649 383
367397 898480 525
540061 753659 509
222060 599906 470
792318 737884 468
309320 240965 407
801809 331158 509
437902 927351 525
10621 705665 509
592321 580309 434
841035 307578 525
727820 223831 509
197043 701204 509
591090 470783 470
419504 319044 449
860088 53384 525
521079 925025 525
269571 769454 509
58410 961988 525
739039 668194 504
340720 204453 443
194011 988482 525
210367 719177 509
909806 754889 525
3144 678102 509
436654 248054 449
674258 259816 509
313514 220669 443
687402 78643 509
67628 31572 340
973362 253410 525
100914 334549 443
731242 588645 509
755918 517775 509
181789 770613 509
677975 255063 509
476770 511445 426
688662 781564 504
709052 726969 411
270906 9412 443
225932 70150 386
606404 458512 470
118843 38419 354
333063 376222 441
927856 608057 525
535250 417116 470
170898 175610 347
667247 949217 525
859644 123845 525
642804 569453 509
304678 546896 470
